aula_01/dump.vcd
$date
	Thu Mar  5 16:36:53 2020
$end
$version
	Icarus Verilog
$end
$timescale
	1s
$end
$scope module testbench $end
$var wire 2 ! leds [1:0] $end
$var reg 1 " clk $end
$scope module b $end
$var wire 1 " CLOCK_50 $end
$var wire 2 # LEDG [1:0] $end
$var reg 11 $ counter [10:0] $end
$var reg 1 % state $end
$upscope $end
$upscope $end
$enddefinitions $end
#0
$dumpvars
1%
b0 $
b1 #
0"
b1 !
$end
#1
b1 $
1"
#2
0"
#3
b10 $
1"
#4
0"
#5
b11 $
1"
#6
0"
#7
b100 $
1"
#8
0"
#9
b101 $
1"
#10
0"
#11
b110 $
1"
#12
0"
#13
b111 $
1"
#14
0"
#15
b1000 $
1"
#16
0"
#17
b1001 $
1"
#18
0"
#19
b1010 $
1"
#20
0"
#21
b0 !
b0 #
0%
b0 $
1"
#22
0"
#23
b1 $
1"
#24
0"
#25
b10 $
1"
#26
0"
#27
b11 $
1"
#28
0"
#29
b100 $
1"
#30
0"
#31
b101 $
1"
#32
0"
#33
b110 $
1"
#34
0"
#35
b111 $
1"
#36
0"
#37
b1000 $
1"
#38
0"
#39
b1001 $
1"
#40
0"
#41
b1010 $
1"
#42
0"
#43
b1 !
b1 #
1%
b0 $
1"
#44
0"
#45
b1 $
1"
#46
0"
#47
b10 $
1"
#48
0"
#49
b11 $
1"
#50
0"
#51
b100 $
1"
#52
0"
#53
b101 $
1"
#54
0"
#55
b110 $
1"
#56
0"
#57
b111 $
1"
#58
0"
#59
b1000 $
1"
#60
0"
#61
b1001 $
1"
#62
0"
#63
b1010 $
1"
#64
0"
#65
b0 !
b0 #
0%
b0 $
1"
#66
0"
#67
b1 $
1"
#68
0"
#69
b10 $
1"
#70
0"
#71
b11 $
1"
#72
0"
#73
b100 $
1"
#74
0"
#75
b101 $
1"
#76
0"
#77
b110 $
1"
#78
0"
#79
b111 $
1"
#80
0"
#81
b1000 $
1"
#82
0"
#83
b1001 $
1"
#84
0"
#85
b1010 $
1"
#86
0"
#87
b1 !
b1 #
1%
b0 $
1"
#88
0"
#89
b1 $
1"
#90
0"
#91
b10 $
1"
#92
0"
#93
b11 $
1"
#94
0"
#95
b100 $
1"
#96
0"
#97
b101 $
1"
#98
0"
#99
b110 $
1"
